<svg xmlns="http://www.w3.org/2000/svg" xmlns:xlink="http://www.w3.org/1999/xlink" preserveAspectRatio="xMidYMid" width="34" height="34" viewBox="0 0 34 34">
  <defs>
    <style>

      .cls-2 {
        fill: #ffffff;
      }
    </style>
  </defs>
  <path d="M0.018,18.076 C4.264,18.076 8.253,19.730 11.252,22.733 C14.255,25.739 15.909,29.741 15.909,34.004 C15.909,34.004 22.449,34.004 22.449,34.004 C22.449,21.628 12.387,11.558 0.018,11.558 C0.018,11.558 0.018,18.076 0.018,18.076 ZM0.028,6.522 C15.155,6.522 27.462,18.853 27.462,34.010 C27.462,34.010 34.002,34.010 34.002,34.010 C34.002,15.259 18.762,0.003 0.028,0.003 C0.028,0.003 0.028,6.522 0.028,6.522 ZM9.073,29.457 C9.073,31.951 7.045,33.972 4.543,33.972 C2.042,33.972 0.014,31.951 0.014,29.457 C0.014,26.964 2.042,24.943 4.543,24.943 C7.045,24.943 9.073,26.964 9.073,29.457 Z" id="path-1" class="cls-2" fill-rule="evenodd"/>
</svg>
